Generating the Extended Unified Democracy Scores • QuickUDS
…
 Normalizing the scores

The UD scores are more useful when normalized to a 0-1 index, where the midpoint is set to the average latent variable cutpoint for the dichotomous democracy measures used. This score can then be interepreted as a kind of probability measure: country-years with scores close to 1 are almost certainly democratic, while country-years with scores close to 0 are almost certainly not, while 0.5 represents the cut-off between democracy and non-democracy. We can easily normalize the scores with the following code.

First, we calculate the cutpoints for the various measures:

cutpoints_extended <- cutpoints(extended_model)

cutpoints_extended

## Source: local data frame [151 x 4]
## Groups: variable [28]
## 
##         variable   estimate     pct025      pct975
##            <chr>      <dbl>      <dbl>       <dbl>
## 1       arat_pmm -1.0058599 -1.0198020 -0.99360045
## 2       arat_pmm -0.6097275 -0.6067450 -0.61213133
## 3       arat_pmm -0.0448286 -0.0105198 -0.07568169
## 4       arat_pmm  0.3507178  0.4170792  0.29104062
## 5       arat_pmm  0.8376795  0.9446163  0.74151363
## 6       arat_pmm  1.7916789  1.9823639  1.62020033
## 7            blm  0.4750676  0.7132151  0.31541145
## 8            blm  1.0673053  1.5931478  0.71465216
## 9  bmr_democracy  0.6275534  0.7038902  0.55951444
## 10           bnr  0.8168451  0.9256871  0.72009063
## # ... with 141 more rows
…
