Replicating and Extending the UD scores of Pemstein, Meserve, and Melton • QuickUDS
…
##  num [1:9137, 1:2] -1.89 -1.89 -1.57 -1.57 -1.45 ...
##  - attr(*, "dimnames")=List of 2
##   ..$ : NULL
##   ..$ : chr [1:2] "F1" "SE_F1"

replication_2011_scores <- democracy_scores(model = replication_2011_model)

# A data frame with confidence intervals:
replication_2011_scores

## # A tibble: 9,137 x 21
##    extended_country_name  year   GWn  cown uds_2010_mean uds_2011_mean
##                    <chr> <dbl> <dbl> <int>         <dbl>         <dbl>
##  1           Afghanistan  1946   700   700     -1.840259     -1.864836
##  2           Afghanistan  1947   700   700     -1.839920     -1.859613
##  3           Afghanistan  1948   700   700     -1.536447     -1.561680
##  4           Afghanistan  1949   700   700     -1.526101     -1.560645
##  5           Afghanistan  1950   700   700     -1.391321     -1.457614
##  6           Afghanistan  1951   700   700     -1.523480     -1.562312
##  7           Afghanistan  1952   700   700     -1.521900     -1.562706
##  8           Afghanistan  1953   700   700     -1.514145     -1.560713
##  9           Afghanistan  1954   700   700     -1.528626     -1.570623
## 10           Afghanistan  1955   700   700     -1.393404     -1.459222
## # ... with 9,127 more rows, and 15 more variables: uds_2014_mean <dbl>,
## #   in_GW_system <lgl>, z1 <dbl>, se_z1 <dbl>, z1_pct975 <dbl>,
## #   z1_pct025 <dbl>, z1_adj <dbl>, z1_pct975_adj <dbl>,
## #   z1_pct025_adj <dbl>, z1_as_prob <dbl>, z1_pct975_as_prob <dbl>,
## #   z1_pct025_as_prob <dbl>, z1_adj_as_prob <dbl>,
## #   z1_pct975_adj_as_prob <dbl>, z1_pct025_adj_as_prob <dbl>
…
It is also possible to to set the cutpoint for this index at, for example, the average cutpoint in the latent variable of the dichotomous indexes of democracy (so that 0.5 correponds more naturally to the point at which a regime could be either democratic or non-democratic according to the dichotomous measures of democracy included in your model). These scores are also automatically calculated (they are in the column z1_adj) but they can also be manuallyadded as follows:

cutpoints_extended <- cutpoints(extended_model)

cutpoints_extended

## # A tibble: 131 x 6
##         variable    estimate      pct025       pct975           se num_obs
##            <chr>       <dbl>       <dbl>        <dbl>        <dbl>   <int>
##  1      pmm_arat -0.80723567 -0.80733175 -0.807148087 4.468415e-05    3873
##  2      pmm_arat -0.45816575 -0.44963891 -0.465937831 3.965348e-03    3873
##  3      pmm_arat  0.01956491  0.04774237 -0.006118384 1.310372e-02    3873
##  4      pmm_arat  0.35159962  0.40167601  0.305955788 2.328767e-02    3873
##  5      pmm_arat  0.79706665  0.88392571  0.717896013 4.039318e-02    3873
##  6      pmm_arat  1.68926666  1.85293789  1.540082976 7.611413e-02    3873
##  7           blm  0.33482793  0.51535168  0.214103455 6.159412e-02     505
##  8           blm  0.98943475  1.47359154  0.665657010 1.651927e-01     505
##  9 bmr_democracy  0.55579853  0.63064980  0.489542142 3.380428e-02   16987
## 10    pmm_bollen -0.94261243 -0.94356834 -0.941858517 3.846498e-04     510
## # ... with 121 more rows
…
A pre-computed version of the extended UDS scores, with data from all the indexes mentioned above, plus the participation-enhanced Polity Scores of Moon et al (2006), a trichotomous democracy indicator calculated from Magaloni, Min, and Chu’s “Autocracies of the World” datset (Magaloni, Min and Chu 2013), a dichotomous democracy indicator calculated from Hsu (2008), the REIGN dataset of Bell (2016), and an indicator of democracy used by the Political Instability Task Force (Goldstein et. al 2010; Taylor and Ulfelder 2015), is included with the package; it can be loaded by simply typing extended_uds. Use ?extended_uds to examine the documentation for all its variables; see my working paper (Marquez 2016) for more detail on the data and its uses.

Extracting useful information from the model

The mirt package offers a great number of powerful tools to examine and diagnose the fitted model, including functions to extract model cutpoints and item information curves. But this package also contains two convenience functions that wrap mirt tools to quickly extract democracy rater discrimination parameters, rater cutoffs, and rater information curves from a model produced by democracy_model in a tidy data frame format suitable for graphing:

replication_2011_cutpoints <- cutpoints(replication_2011_model, type ="score")
replication_2011_cutpoints

## # A tibble: 82 x 6
##      variable     estimate        pct025      pct975          se num_obs
##         <chr>        <dbl>         <dbl>       <dbl>       <dbl>   <int>
##  1   pmm_arat -1.433460078 -1.4437423325 -1.42419659 0.004726270    3873
##  2   pmm_arat -1.016967994 -1.0140094933 -1.01963337 0.001359884    3873
##  3   pmm_arat -0.426523421 -0.4022889387 -0.44835675 0.011139453    3873
##  4   pmm_arat -0.041868426 -0.0004390298 -0.07919300 0.019043148    3873
##  5   pmm_arat  0.420924863  0.4917617920  0.35710646 0.032560410    3873
##  6   pmm_arat  1.421166192  1.5775573068  1.28027031 0.071885652    3873
##  7    pmm_blm -0.002480625  0.0906628959 -0.04447325 0.021424811     275
##  8    pmm_blm  0.474438069  1.0384741177  0.22014923 0.129739202     275
##  9 pmm_bollen -1.525696187 -1.5540409858 -1.50437217 0.010879603     510
## 10 pmm_bollen -1.077099399 -1.0818698799 -1.07351053 0.001831057     510
## # ... with 72 more rows
…
# And we can plot item information curves for each rater:
replication_2011_info <- raterinfo(replication_2011_model)
replication_2011_info

## # A tibble: 732 x 3
##       rater theta         info
##       <chr> <dbl>        <dbl>
##  1 pmm_arat  -6.0 1.215755e-06
##  2 pmm_arat  -5.8 2.465780e-06
##  3 pmm_arat  -5.6 5.001062e-06
##  4 pmm_arat  -5.4 1.014308e-05
##  5 pmm_arat  -5.2 2.057204e-05
##  6 pmm_arat  -5.0 4.172382e-05
##  7 pmm_arat  -4.8 8.462315e-05
##  8 pmm_arat  -4.6 1.716292e-04
##  9 pmm_arat  -4.4 3.480865e-04
## 10 pmm_arat  -4.2 7.059443e-04
## # ... with 722 more rows
…
